…
-   There are 134 aisles in this data set and the most items are ordered
    from the fresh vegetables and fresh fruits aisles.

``` r
data("instacart")
instacart_df =
  instacart %>%
  janitor::clean_names()%>%
  count(aisle) %>%
  arrange(desc(n))
instacart_df
```

    ## # A tibble: 134 x 2
    ##    aisle                              n
    ##    <chr>                          <int>
    ##  1 fresh vegetables              150609
    ##  2 fresh fruits                  150473
    ##  3 packaged vegetables fruits     78493
    ##  4 yogurt                         55240
    ##  5 packaged cheese                41699
    ##  6 water seltzer sparkling water  36617
    ##  7 milk                           32644
    ##  8 chips pretzels                 31269
    ##  9 soy lactosefree                26240
    ## 10 bread                          23635
    ## # ... with 124 more rows
…
**data cleaning**

``` r
data("brfss_smart2010")
brfss_smart=
  brfss_smart2010 %>%
  janitor::clean_names() %>%
  filter(topic == "Overall Health") %>%
  mutate(
    response = forcats::fct_relevel(response, c("Excellent", "Very good", "Good", "Fair", "Poor"))) %>%
  arrange(desc(response))
brfss_smart
```

    ## # A tibble: 10,625 x 23
    ##     year locationabbr locationdesc  class  topic  question  response sample_size
    ##    <int> <chr>        <chr>         <chr>  <chr>  <chr>     <fct>          <int>
    ##  1  2010 AL           AL - Jeffers~ Healt~ Overa~ How is y~ Poor              45
    ##  2  2010 AL           AL - Mobile ~ Healt~ Overa~ How is y~ Poor              66
    ##  3  2010 AL           AL - Tuscalo~ Healt~ Overa~ How is y~ Poor              35
    ##  4  2010 AZ           AZ - Maricop~ Healt~ Overa~ How is y~ Poor              62
    ##  5  2010 AZ           AZ - Pima Co~ Healt~ Overa~ How is y~ Poor              49
    ##  6  2010 AZ           AZ - Pinal C~ Healt~ Overa~ How is y~ Poor              30
    ##  7  2010 AR           AR - Benton ~ Healt~ Overa~ How is y~ Poor              21
    ##  8  2010 AR           AR - Pulaski~ Healt~ Overa~ How is y~ Poor              36
    ##  9  2010 AR           AR - Washing~ Healt~ Overa~ How is y~ Poor              16
    ## 10  2010 CA           CA - Alameda~ Healt~ Overa~ How is y~ Poor              23
    ## # ... with 10,615 more rows, and 15 more variables: data_value <dbl>,
    ## #   confidence_limit_low <dbl>, confidence_limit_high <dbl>,
    ## #   display_order <int>, data_value_unit <chr>, data_value_type <chr>,
    ## #   data_value_footnote_symbol <chr>, data_value_footnote <chr>,
    ## #   data_source <chr>, class_id <chr>, topic_id <chr>, location_id <chr>,
    ## #   question_id <chr>, respid <chr>, geo_location <chr>
…
